…
Going further

``` r
## if you have time to do more ...

## is every package in .Library either base or recommended?

    # No, there is one package that is neither:
pacs %>%
  filter(LibPath == "C:/Program Files/R/R-3.4.3/library") %>% 
  select(Package, Priority)
```

    ## # A tibble: 30 x 2
    ##    Package   Priority   
    ##    <chr>     <chr>      
    ##  1 base      base       
    ##  2 boot      recommended
    ##  3 class     recommended
    ##  4 cluster   recommended
    ##  5 codetools recommended
    ##  6 compiler  base       
    ##  7 datasets  base       
    ##  8 foreign   recommended
    ##  9 graphics  base       
    ## 10 grDevices base       
    ## # ... with 20 more rows
…
